1065,22.03.2012;9;AI;Екатеринбург,100RUB
1510,22.08.2014;1;AI;Пермь,100RUB
57,21.04.2013;7;AI;Москва,100RUB
1801,25.10.2013;6;AI;Екатеринбург,100RUB
1508,11.02.2013;1;AI;Санкт-Петербург,100RUB
892,27.03.2009;4;AI;Новосибирск,100RUB
1098,24.04.2015;5;AI;Пермь,100RUB
1141,13.03.2013;2;AI;Санкт-Петербург,100RUB
1046,03.07.2014;2;AI;Новосибирск,100RUB
358,26.01.2009;0;AI;Cевастополь,100RUB
26,10.10.2014;7;AI;Новосибирск,100RUB
704,27.04.2013;4;AI;Москва,100RUB
883,20.12.2013;4;AI;Новосибирск,100RUB
769,17.10.2010;2;AI;Новосибирск,100RUB
789,05.01.2010;6;AI;Екатеринбург,100RUB
1045,26.08.2013;4;AI;Пермь,100RUB
1302,23.05.2013;0;AI;Архангельск,100RUB
1363,22.04.2015;3;AI;Архангельск,100RUB
155,26.04.2009;2;AI;Новосибирск,100RUB
1755,02.07.2010;9;AI;Санкт-Петербург,100RUB
1761,05.06.2009;2;AI;Санкт-Петербург,100RUB
161,04.12.2013;1;AI;Екатеринбург,100RUB
442,18.05.2013;7;AI;Новосибирск,100RUB
669,06.08.2010;4;AI;Cевастополь,100RUB
153,26.12.2009;2;AI;Архангельск,100RUB
1453,19.06.2012;5;AI;Санкт-Петербург,100RUB
878,27.12.2012;5;AI;Мурманск,100RUB
1353,20.03.2013;6;AI;Новосибирск,100RUB
1726,29.04.2015;0;AI;Архангельск,100RUB
325,19.04.2009;0;AI;Пермь,100RUB
1312,23.05.2013;3;AI;Cевастополь,100RUB
1697,30.11.2008;7;AI;Москва,100RUB
1499,18.04.2011;8;AI;Новосибирск,100RUB
504,23.12.2008;8;AI;Мурманск,100RUB
832,12.09.2012;1;AI;Архангельск,100RUB
1757,21.03.2010;9;AI;Пермь,100RUB
1207,19.12.2008;3;AI;Москва,100RUB
868,07.09.2011;5;AI;Пермь,100RUB
1981,07.04.2011;5;AI;Санкт-Петербург,100RUB
716,29.01.2013;9;AI;Пермь,100RUB
1486,16.09.2014;1;AI;Санкт-Петербург,100RUB
1198,31.05.2010;4;AI;Cевастополь,100RUB
1908,06.08.2011;4;AI;Архангельск,100RUB
793,28.02.2009;2;AI;Санкт-Петербург,100RUB
1361,28.08.2009;2;AI;Архангельск,100RUB
143,11.05.2010;4;AI;Санкт-Петербург,100RUB
287,23.06.2011;8;AI;Мурманск,100RUB
450,25.07.2011;2;AI;Москва,100RUB
1241,04.07.2013;8;AI;Москва,100RUB
1741,13.06.2012;9;AI;Новосибирск,100RUB
1590,21.12.2010;3;AI;Архангельск,100RUB
1591,20.01.2013;5;AI;Cевастополь,100RUB
1084,24.08.2013;4;AI;Пермь,100RUB
690,04.10.2008;0;AI;Москва,100RUB
1889,01.08.2010;9;AI;Пермь,100RUB
1360,01.03.2012;1;AI;Мурманск,100RUB
781,01.02.2009;4;AI;Новосибирск,100RUB
1712,19.07.2014;0;AI;Москва,100RUB
1952,25.11.2014;4;AI;Пермь,100RUB
315,14.03.2009;7;AI;Архангельск,100RUB
1474,02.04.2010;0;AI;Екатеринбург,100RUB
1036,13.12.2012;9;AI;Екатеринбург,100RUB
1551,09.05.2013;5;AI;Москва,100RUB
1916,11.06.2009;3;AI;Пермь,100RUB
1861,12.08.2012;4;AI;Архангельск,100RUB
1308,17.10.2011;6;AI;Санкт-Петербург,100RUB
136,31.03.2009;2;AI;Москва,100RUB
1026,27.02.2014;2;AI;Мурманск,100RUB
373,13.05.2015;2;AI;Пермь,100RUB
1030,01.07.2015;7;AI;Архангельск,100RUB
988,07.08.2014;0;AI;Пермь,100RUB
1778,11.12.2008;7;AI;Cевастополь,100RUB
40,25.10.2011;8;AI;Екатеринбург,100RUB
828,20.04.2015;6;AI;Архангельск,100RUB
80,01.01.2013;2;AI;Архангельск,100RUB
360,23.01.2010;7;AI;Екатеринбург,100RUB
395,02.11.2014;9;AI;Архангельск,100RUB
439,07.07.2011;6;AI;Cевастополь,100RUB
1991,08.03.2014;3;AI;Cевастополь,100RUB
1208,16.11.2011;6;AI;Москва,100RUB
1605,05.08.2010;6;AI;Мурманск,100RUB
1034,29.09.2009;7;AI;Москва,100RUB
1919,27.12.2008;5;AI;Москва,100RUB
606,30.06.2009;1;AI;Санкт-Петербург,100RUB
182,12.09.2012;7;AI;Санкт-Петербург,100RUB
561,27.07.2009;1;AI;Cевастополь,100RUB
206,15.09.2014;3;AI;Новосибирск,100RUB
1386,13.05.2015;7;AI;Архангельск,100RUB
1541,30.05.2011;0;AI;Мурманск,100RUB
637,04.09.2009;9;AI;Архангельск,100RUB
1136,02.05.2010;8;AI;Новосибирск,100RUB
1255,29.08.2014;8;AI;Новосибирск,100RUB
699,02.01.2011;2;AI;Москва,100RUB
227,26.11.2013;3;AI;Москва,100RUB
612,28.09.2014;0;AI;Cевастополь,100RUB
1720,27.09.2012;1;AI;Архангельск,110RUB
495,06.07.2012;3;AI;Екатеринбург,110RUB
725,07.01.2014;0;AI;Мурманск,110RUB
1849,08.03.2013;1;AI;Архангельск,110RUB
910,08.01.2011;3;AI;Санкт-Петербург,110RUB
1421,26.06.2014;8;AI;Екатеринбург,110RUB
503,30.07.2014;9;AI;Архангельск,110RUB
1581,21.03.2014;9;AI;Пермь,110RUB
1460,12.08.2009;6;AI;Пермь,110RUB
829,08.08.2013;2;AI;Cевастополь,110RUB
1521,27.03.2009;7;AI;Cевастополь,110RUB
424,17.05.2010;9;AI;Москва,110RUB
1249,06.09.2011;5;AI;Екатеринбург,110RUB
865,13.06.2014;3;AI;Новосибирск,110RUB
900,26.02.2011;0;AI;Пермь,110RUB
142,28.09.2012;9;AI;Москва,110RUB
1589,30.04.2012;2;AI;Cевастополь,110RUB
446,25.06.2015;4;AI;Москва,110RUB
1964,05.05.2013;8;AI;Москва,110RUB
689,07.08.2011;0;AI;Новосибирск,110RUB
1687,12.08.2015;5;AI;Мурманск,110RUB
1450,21.02.2014;0;AI;Пермь,110RUB
254,28.08.2014;2;AI;Пермь,110RUB
118,17.04.2015;7;AI;Архангельск,110RUB
1506,12.12.2013;3;AI;Екатеринбург,110RUB
42,11.08.2009;5;AI;Cевастополь,110RUB
667,12.07.2011;9;AI;Екатеринбург,110RUB
1038,30.03.2011;2;AI;Санкт-Петербург,110RUB
1855,18.12.2010;8;AI;Мурманск,110RUB
609,21.04.2013;6;AI;Мурманск,110RUB
662,21.11.2009;4;AI;Санкт-Петербург,110RUB
447,17.12.2008;3;AI;Архангельск,110RUB
968,04.07.2015;3;AI;Архангельск,110RUB
1100,24.03.2013;3;AI;Москва,110RUB
1325,11.03.2012;2;AI;Cевастополь,110RUB
1923,31.07.2013;7;AI;Новосибирск,110RUB
216,10.05.2015;4;AI;Санкт-Петербург,110RUB
946,20.12.2010;1;AI;Екатеринбург,110RUB
47,10.05.2012;9;AI;Екатеринбург,110RUB
305,21.12.2012;0;AI;Пермь,110RUB
265,03.05.2010;3;AI;Пермь,110RUB
1184,30.10.2011;3;AI;Санкт-Петербург,110RUB
222,14.05.2010;3;AI;Архангельск,110RUB
1998,23.06.2012;9;AI;Пермь,110RUB
1929,15.09.2011;5;AI;Новосибирск,110RUB
414,01.02.2015;3;AI;Cевастополь,110RUB
1808,25.04.2013;6;AI;Cевастополь,110RUB
638,30.07.2013;9;AI;Пермь,110RUB
1363,08.10.2009;8;AI;Cевастополь,110RUB
1072,17.08.2009;7;AI;Санкт-Петербург,110RUB
1353,12.05.2012;6;AI;Архангельск,110RUB
245,05.09.2012;9;AI;Санкт-Петербург,110RUB
1369,04.03.2011;6;AI;Мурманск,110RUB
1811,10.03.2012;7;AI;Мурманск,110RUB
937,15.01.2011;9;AI;Пермь,110RUB
27,14.11.2013;9;AI;Екатеринбург,110RUB
896,24.09.2015;7;AI;Пермь,110RUB
195,11.11.2011;6;AI;Мурманск,110RUB
1603,19.07.2010;7;AI;Новосибирск,110RUB
796,15.11.2012;5;AI;Новосибирск,110RUB
1290,17.09.2012;0;AI;Архангельск,110RUB
282,11.10.2008;8;AI;Екатеринбург,110RUB
230,03.07.2011;8;AI;Санкт-Петербург,110RUB
1661,22.02.2013;5;AI;Cевастополь,110RUB
296,04.10.2008;4;AI;Cевастополь,110RUB
22,30.06.2009;5;AI;Cевастополь,110RUB
298,30.08.2014;4;AI;Cевастополь,110RUB
1783,26.10.2012;5;AI;Пермь,110RUB
218,21.06.2012;9;AI;Екатеринбург,110RUB
295,18.04.2014;8;AI;Архангельск,110RUB
752,22.06.2011;6;AI;Пермь,110RUB
704,24.07.2014;1;AI;Екатеринбург,110RUB
1048,17.09.2014;7;AI;Москва,110RUB
1695,24.01.2015;8;AI;Мурманск,110RUB
1151,05.06.2012;4;AI;Новосибирск,110RUB
806,04.02.2013;9;AI;Мурманск,110RUB
1962,12.06.2009;3;AI;Новосибирск,110RUB
1077,16.01.2014;8;AI;Архангельск,110RUB
7,20.02.2010;2;AI;Пермь,110RUB
348,12.09.2011;9;AI;Пермь,110RUB
3,26.05.2014;9;AI;Санкт-Петербург,110RUB
1445,20.08.2009;5;AI;Архангельск,110RUB
1564,08.03.2014;0;AI;Санкт-Петербург,110RUB
378,23.05.2013;2;AI;Мурманск,110RUB
1640,22.05.2015;9;AI;Cевастополь,110RUB
1944,11.08.2013;9;AI;Москва,110RUB
680,12.06.2015;4;AI;Санкт-Петербург,110RUB
771,02.10.2012;8;AI;Пермь,110RUB
693,22.08.2015;7;AI;Архангельск,110RUB
1441,12.08.2010;9;AI;Новосибирск,110RUB
107,30.08.2012;9;AI;Екатеринбург,110RUB
1498,17.07.2011;0;AI;Екатеринбург,110RUB
1390,31.12.2009;3;AI;Архангельск,110RUB
1968,03.01.2014;8;AI;Мурманск,110RUB
245,17.05.2010;3;AI;Санкт-Петербург,110RUB
183,21.11.2013;2;AI;Пермь,120RUB
792,20.06.2010;8;AI;Пермь,120RUB
1189,31.07.2009;0;AI;Екатеринбург,120RUB
1231,14.11.2012;1;AI;Екатеринбург,120RUB
735,20.05.2012;6;AI;Екатеринбург,120RUB
253,22.06.2011;2;AI;Санкт-Петербург,120RUB
43,26.08.2013;3;AI;Мурманск,120RUB
409,12.05.2010;7;AI;Мурманск,120RUB
1877,28.05.2011;5;AI;Мурманск,120RUB
234,19.09.2010;9;AI;Екатеринбург,120RUB
916,20.11.2011;3;AI;Санкт-Петербург,120RUB
1205,08.03.2012;5;AI;Новосибирск,120RUB
700,21.01.2015;6;AI;Новосибирск,120RUB
126,04.03.2009;0;AI;Москва,120RUB
215,30.10.2013;7;AI;Санкт-Петербург,120RUB
978,05.10.2008;4;AI;Санкт-Петербург,120RUB
1180,28.11.2010;9;AI;Новосибирск,120RUB
980,15.06.2012;4;AI;Мурманск,120RUB
893,11.04.2013;4;AI;Архангельск,120RUB
955,04.06.2015;5;AI;Мурманск,120RUB
170,10.06.2009;0;AI;Новосибирск,120RUB
145,26.12.2009;4;AI;Архангельск,120RUB
1954,17.03.2014;5;AI;Cевастополь,120RUB
1213,18.08.2009;3;AI;Cевастополь,120RUB
757,12.09.2012;0;AI;Архангельск,120RUB
146,27.06.2012;1;AI;Пермь,120RUB
290,21.03.2010;6;AI;Екатеринбург,120RUB
1417,10.06.2010;7;AI;Санкт-Петербург,120RUB
248,31.12.2011;4;AI;Екатеринбург,120RUB
1599,26.01.2014;5;AI;Новосибирск,120RUB
1771,14.06.2012;9;AI;Москва,120RUB
1739,08.09.2011;5;AI;Мурманск,120RUB
384,19.11.2014;1;AI;Cевастополь,120RUB
920,07.03.2015;6;AI;Новосибирск,120RUB
560,11.03.2013;3;AI;Cевастополь,120RUB
288,02.12.2014;0;AI;Москва,120RUB
1345,10.08.2012;0;AI;Екатеринбург,120RUB
868,21.07.2012;1;AI;Екатеринбург,120RUB
576,06.07.2015;0;AI;Санкт-Петербург,120RUB
1173,11.12.2011;3;AI;Cевастополь,120RUB
1279,05.07.2012;8;AI;Екатеринбург,120RUB
25,26.12.2012;8;AI;Новосибирск,120RUB
737,27.12.2011;5;AI;Архангельск,120RUB
1645,08.09.2011;4;AI;Мурманск,120RUB
1326,29.07.2009;5;AI;Мурманск,120RUB
357,05.02.2011;2;AI;Архангельск,120RUB
813,28.01.2015;3;AI;Пермь,120RUB
298,24.06.2011;2;AI;Мурманск,120RUB
1497,14.05.2015;8;AI;Мурманск,120RUB
171,30.09.2012;5;AI;Санкт-Петербург,120RUB
1315,13.02.2013;6;AI;Cевастополь,120RUB
822,15.09.2010;1;AI;Cевастополь,120RUB
796,04.12.2008;0;AI;Москва,120RUB
1225,05.10.2008;0;AI;Мурманск,120RUB
39,20.04.2011;5;AI;Пермь,120RUB
853,19.08.2009;6;AI;Cевастополь,120RUB
1630,25.05.2013;7;AI;Мурманск,120RUB
336,28.01.2013;4;AI;Мурманск,120RUB
1474,31.10.2009;2;AI;Пермь,120RUB
824,10.08.2009;2;AI;Новосибирск,120RUB
59,21.08.2014;5;AI;Екатеринбург,120RUB
1904,03.11.2008;6;AI;Новосибирск,120RUB
460,23.01.2011;3;AI;Архангельск,120RUB
748,14.11.2014;9;AI;Санкт-Петербург,120RUB
836,20.03.2010;5;AI;Москва,120RUB
1566,19.08.2015;2;AI;Москва,120RUB
955,15.04.2009;8;AI;Москва,120RUB
1620,01.04.2015;5;AI;Москва,120RUB
267,30.07.2014;2;AI;Пермь,120RUB
1427,27.01.2013;6;AI;Москва,120RUB
61,22.07.2012;5;AI;Мурманск,120RUB
357,05.03.2010;8;AI;Екатеринбург,120RUB
750,02.08.2011;7;AI;Санкт-Петербург,120RUB
1498,26.10.2008;6;AI;Новосибирск,120RUB
259,17.03.2011;7;AI;Архангельск,120RUB
964,01.08.2012;6;AI;Москва,120RUB
1174,23.03.2014;4;AI;Архангельск,120RUB
1555,08.08.2013;0;AI;Архангельск,120RUB
1305,13.02.2012;1;AI;Пермь,120RUB
663,21.05.2013;1;AI;Санкт-Петербург,120RUB
821,01.01.2010;5;AI;Новосибирск,120RUB
405,02.03.2010;2;AI;Архангельск,120RUB
296,09.09.2012;6;AI;Архангельск,120RUB
1565,26.01.2009;7;AI;Мурманск,120RUB
1459,28.12.2010;4;AI;Новосибирск,120RUB
428,15.12.2010;0;AI;Cевастополь,120RUB
1007,20.11.2012;4;AI;Cевастополь,120RUB
1617,24.11.2009;4;AI;Пермь,120RUB
975,11.01.2013;9;AI;Екатеринбург,120RUB
1152,13.03.2014;5;AI;Екатеринбург,120RUB
307,29.07.2010;7;AI;Екатеринбург,120RUB
620,04.10.2011;1;AI;Пермь,120RUB
922,03.12.2014;0;AI;Мурманск,120RUB
327,14.09.2014;7;AI;Пермь,120RUB
1746,16.04.2012;1;AI;Санкт-Петербург,120RUB
1629,25.12.2008;4;AI;Москва,120RUB
1234,04.03.2009;9;AI;Екатеринбург,120RUB
1454,30.10.2012;1;AI;Екатеринбург,120RUB
1920,20.05.2011;7;AI;Архангельск,120RUB
1485,29.08.2014;5;AI;Москва,120RUB
201,26.11.2008;4;AI;Cевастополь,120RUB
1330,11.05.2014;4;AI;Екатеринбург,120RUB
1866,22.02.2011;4;AI;Екатеринбург,120RUB
936,13.02.2010;4;AI;Екатеринбург,120RUB
286,25.01.2013;3;AI;Мурманск,120RUB
30,18.10.2010;0;AI;Мурманск,120RUB
1910,26.04.2011;8;AI;Архангельск,120RUB
1091,28.08.2012;4;AI;Архангельск,130RUB
141,03.10.2012;0;AI;Архангельск,130RUB
916,19.03.2012;2;AI;Новосибирск,130RUB
461,17.10.2012;7;AI;Мурманск,130RUB
1713,29.04.2015;7;AI;Екатеринбург,130RUB
1372,16.01.2014;7;AI;Санкт-Петербург,130RUB
1572,06.06.2014;8;AI;Новосибирск,130RUB
404,24.03.2012;3;AI;Cевастополь,130RUB
64,11.10.2012;6;AI;Архангельск,130RUB
1471,14.11.2008;3;AI;Екатеринбург,130RUB
324,06.09.2014;1;AI;Мурманск,130RUB
906,21.03.2013;2;AI;Новосибирск,130RUB
1401,07.05.2014;4;AI;Екатеринбург,130RUB
233,27.10.2012;4;AI;Пермь,130RUB
1631,28.06.2013;5;AI;Москва,130RUB
1530,23.10.2012;2;AI;Екатеринбург,130RUB
904,13.12.2011;3;AI;Cевастополь,130RUB
1272,01.11.2012;8;AI;Пермь,130RUB
1248,20.12.2010;0;AI;Пермь,130RUB
1845,26.09.2013;4;AI;Москва,130RUB
327,25.05.2012;2;AI;Новосибирск,130RUB
356,15.09.2014;0;AI;Москва,130RUB
823,15.02.2013;9;AI;Санкт-Петербург,130RUB
1354,08.12.2009;3;AI;Пермь,130RUB
1228,11.01.2011;8;AI;Мурманск,130RUB
1672,24.10.2012;3;AI;Санкт-Петербург,130RUB
1647,26.07.2015;0;AI;Екатеринбург,130RUB
833,13.11.2013;8;AI;Санкт-Петербург,130RUB
1989,24.10.2009;2;AI;Cевастополь,130RUB
495,08.02.2015;3;AI;Архангельск,130RUB
710,10.07.2010;2;AI;Мурманск,130RUB
363,15.08.2015;7;AI;Екатеринбург,130RUB
1654,06.09.2010;5;AI;Пермь,130RUB
774,04.05.2009;4;AI;Cевастополь,130RUB
1652,31.10.2010;1;AI;Мурманск,130RUB
1906,14.01.2013;1;AI;Архангельск,130RUB
311,25.04.2009;3;AI;Архангельск,130RUB
1620,13.04.2013;4;AI;Cевастополь,130RUB
1314,01.11.2013;3;AI;Архангельск,130RUB
1096,05.02.2013;5;AI;Новосибирск,130RUB
1056,30.06.2009;5;AI;Екатеринбург,130RUB
1364,14.05.2015;6;AI;Cевастополь,130RUB
1770,17.10.2012;4;AI;Архангельск,130RUB
347,07.11.2008;9;AI;Москва,130RUB
1749,14.12.2009;8;AI;Мурманск,130RUB
1909,09.11.2014;8;AI;Санкт-Петербург,130RUB
1879,24.10.2009;7;AI;Cевастополь,130RUB
156,21.02.2015;2;AI;Cевастополь,130RUB
1797,27.12.2014;7;AI;Cевастополь,130RUB
1459,02.12.2009;2;AI;Архангельск,130RUB
1360,29.03.2009;2;AI;Москва,130RUB
1464,13.08.2011;8;AI;Архангельск,130RUB
1071,13.12.2009;9;AI;Cевастополь,130RUB
517,08.01.2010;0;AI;Cевастополь,130RUB
608,26.10.2014;7;AI;Новосибирск,130RUB
916,15.11.2013;3;AI;Новосибирск,130RUB
389,06.09.2014;0;AI;Новосибирск,130RUB
1735,28.12.2010;5;AI;Мурманск,130RUB
1395,21.12.2010;2;AI;Cевастополь,130RUB
527,19.09.2011;9;AI;Екатеринбург,130RUB
773,17.05.2011;4;AI;Cевастополь,130RUB
1264,18.07.2012;1;AI;Cевастополь,130RUB
38,24.12.2012;6;AI;Архангельск,130RUB
626,30.10.2009;7;AI;Мурманск,130RUB
1987,11.07.2010;7;AI;Cевастополь,130RUB
1195,15.08.2011;1;AI;Архангельск,130RUB
1118,13.11.2009;8;AI;Екатеринбург,130RUB
270,18.02.2011;1;AI;Санкт-Петербург,130RUB
1424,24.03.2010;5;AI;Екатеринбург,130RUB
523,13.06.2013;4;AI;Санкт-Петербург,130RUB
1780,13.02.2014;7;AI;Мурманск,130RUB
222,05.09.2009;3;AI;Санкт-Петербург,130RUB
1762,23.04.2012;8;AI;Cевастополь,130RUB
1957,20.02.2010;0;AI;Москва,130RUB
1476,24.03.2010;4;AI;Мурманск,130RUB
1297,21.12.2013;3;AI;Москва,130RUB
426,27.08.2013;4;AI;Пермь,130RUB
267,05.03.2009;1;AI;Новосибирск,130RUB
1801,03.08.2015;7;AI;Мурманск,130RUB
981,31.12.2011;3;AI;Пермь,130RUB
123,01.10.2008;5;AI;Архангельск,130RUB
1407,15.08.2010;4;AI;Cевастополь,130RUB
288,03.11.2011;8;AI;Cевастополь,130RUB
803,25.04.2011;6;AI;Новосибирск,130RUB
1332,09.07.2013;9;AI;Екатеринбург,130RUB
653,21.08.2011;5;AI;Пермь,130RUB
1854,09.07.2014;5;AI;Москва,130RUB
157,09.10.2013;6;AI;Екатеринбург,130RUB
490,03.12.2011;4;AI;Мурманск,130RUB
1268,18.12.2009;5;AI;Пермь,130RUB
136,26.04.2015;8;AI;Екатеринбург,130RUB
1508,16.10.2011;0;AI;Новосибирск,130RUB
285,13.02.2014;9;AI;Москва,130RUB
1985,06.04.2014;0;AI;Cевастополь,130RUB
535,27.03.2015;6;AI;Новосибирск,130RUB
449,19.07.2011;4;AI;Москва,130RUB
1931,10.03.2014;6;AI;Санкт-Петербург,130RUB
38,16.11.2008;9;AI;Екатеринбург,130RUB
278,20.12.2011;1;AI;Москва,130RUB
1392,28.06.2009;8;AI;Архангельск,130RUB
1710,20.05.2011;6;AI;Екатеринбург,130RUB
149,23.04.2012;6;AI;Москва,130RUB
92,16.12.2011;4;AI;Пермь,130RUB
1712,25.08.2015;2;AI;Новосибирск,130RUB
1874,24.11.2012;8;AI;Новосибирск,130RUB
1665,15.11.2010;9;AI;Москва,130RUB
56,11.12.2010;2;AI;Екатеринбург,130RUB
129,20.09.2013;7;AI;Cевастополь,140RUB
1641,05.12.2014;6;AI;Пермь,140RUB
959,05.03.2009;9;AI;Москва,140RUB
857,18.07.2009;6;AI;Cевастополь,140RUB
1810,19.01.2015;5;AI;Екатеринбург,140RUB
1578,13.11.2011;0;AI;Cевастополь,140RUB
380,23.06.2014;0;AI;Мурманск,140RUB
858,23.02.2010;6;AI;Санкт-Петербург,140RUB
1522,13.06.2011;5;AI;Cевастополь,140RUB
1414,17.05.2009;0;AI;Санкт-Петербург,140RUB
1945,10.03.2009;1;AI;Архангельск,140RUB
49,25.07.2012;6;AI;Мурманск,140RUB
27,02.04.2015;3;AI;Санкт-Петербург,140RUB
1914,31.10.2011;6;AI;Санкт-Петербург,140RUB
1103,26.12.2010;3;AI;Мурманск,140RUB
1249,03.11.2013;0;AI;Мурманск,140RUB
761,30.11.2012;2;AI;Санкт-Петербург,140RUB
1601,27.01.2015;0;AI;Cевастополь,140RUB
600,12.04.2015;8;AI;Пермь,140RUB
525,01.06.2012;0;AI;Санкт-Петербург,140RUB
181,21.07.2012;1;AI;Новосибирск,140RUB
1302,05.02.2012;1;AI;Архангельск,140RUB
251,20.09.2010;1;AI;Новосибирск,140RUB
1251,19.10.2008;2;AI;Санкт-Петербург,140RUB
520,05.10.2008;4;AI;Новосибирск,140RUB
1638,01.03.2015;2;AI;Новосибирск,140RUB
921,05.10.2009;4;AI;Санкт-Петербург,140RUB
754,15.03.2009;2;AI;Мурманск,140RUB
1210,28.08.2015;8;AI;Санкт-Петербург,140RUB
704,13.12.2012;5;AI;Санкт-Петербург,140RUB
1924,27.06.2014;5;AI;Москва,140RUB
1457,06.11.2010;2;AI;Москва,140RUB
788,27.07.2015;6;AI;Мурманск,140RUB
472,21.09.2009;6;AI;Мурманск,140RUB
411,21.03.2012;4;AI;Архангельск,140RUB
64,28.07.2013;2;AI;Cевастополь,140RUB
541,11.02.2013;7;AI;Мурманск,140RUB
293,15.02.2011;1;AI;Москва,140RUB
1840,27.08.2010;4;AI;Екатеринбург,140RUB
1606,19.09.2015;5;AI;Новосибирск,140RUB
1952,03.07.2014;2;AI;Cевастополь,140RUB
1224,07.01.2013;5;AI;Екатеринбург,140RUB
1647,13.06.2012;5;AI;Пермь,140RUB
1863,26.01.2009;5;AI;Cевастополь,140RUB
1285,22.08.2011;7;AI;Москва,140RUB
1519,07.12.2012;2;AI;Санкт-Петербург,140RUB
1622,17.09.2012;3;AI;Санкт-Петербург,140RUB
1355,17.04.2009;8;AI;Cевастополь,140RUB
1891,21.06.2011;0;AI;Мурманск,140RUB
1404,22.03.2012;1;AI;Новосибирск,140RUB
733,26.09.2010;2;AI;Новосибирск,140RUB
891,09.06.2011;3;AI;Мурманск,140RUB
1194,08.05.2012;3;AI;Санкт-Петербург,140RUB
1044,13.03.2013;6;AI;Мурманск,140RUB
1698,15.04.2014;9;AI;Новосибирск,140RUB
1270,03.02.2010;3;AI;Новосибирск,140RUB
1469,11.07.2010;0;AI;Москва,140RUB
1549,14.07.2011;0;AI;Екатеринбург,140RUB
1062,22.01.2010;7;AI;Мурманск,140RUB
1747,06.02.2012;5;AI;Екатеринбург,140RUB
1895,11.07.2010;5;AI;Cевастополь,140RUB
206,26.06.2013;4;AI;Архангельск,140RUB
1198,21.10.2008;4;AI;Cевастополь,140RUB
1414,13.06.2009;9;AI;Новосибирск,140RUB
1764,05.01.2012;3;AI;Мурманск,140RUB
1186,07.06.2010;2;AI;Москва,140RUB
1884,14.11.2013;4;AI;Москва,140RUB
1993,22.07.2015;2;AI;Cевастополь,140RUB
1480,20.09.2009;5;AI;Пермь,140RUB
1355,06.07.2009;8;AI;Пермь,140RUB
219,15.08.2015;6;AI;Санкт-Петербург,140RUB
1864,25.08.2014;6;AI;Москва,140RUB
655,09.05.2014;2;AI;Cевастополь,140RUB
1656,29.03.2012;2;AI;Москва,140RUB
762,21.02.2013;4;AI;Мурманск,140RUB
691,03.01.2009;6;AI;Санкт-Петербург,140RUB
231,02.07.2014;4;AI;Пермь,140RUB
832,22.02.2014;2;AI;Пермь,140RUB
169,07.12.2010;1;AI;Мурманск,140RUB
1469,21.05.2014;8;AI;Новосибирск,140RUB
882,05.05.2010;0;AI;Cевастополь,140RUB
1640,27.07.2009;7;AI;Екатеринбург,140RUB
1256,29.09.2008;0;AI;Москва,140RUB
1905,13.01.2009;0;AI;Мурманск,140RUB
322,21.10.2011;7;AI;Санкт-Петербург,140RUB
6,31.01.2010;5;AI;Cевастополь,140RUB
936,08.11.2014;9;AI;Екатеринбург,140RUB
1462,09.12.2008;4;AI;Пермь,140RUB
1982,18.02.2014;1;AI;Пермь,140RUB
1407,21.01.2014;1;AI;Cевастополь,140RUB
352,26.08.2015;7;AI;Новосибирск,140RUB
553,21.01.2013;7;AI;Санкт-Петербург,140RUB
498,10.03.2015;6;AI;Cевастополь,140RUB
666,10.06.2012;2;AI;Москва,140RUB
1494,15.08.2009;5;AI;Москва,140RUB
703,01.04.2014;7;AI;Пермь,140RUB
459,17.01.2011;5;AI;Пермь,140RUB
837,30.06.2011;1;AI;Пермь,140RUB
1677,06.04.2011;5;AI;Санкт-Петербург,140RUB
454,26.01.2014;8;AI;Архангельск,140RUB
358,18.07.2013;4;AI;Санкт-Петербург,140RUB
1243,16.12.2009;0;AI;Екатеринбург,140RUB
300,01.02.2013;7;AI;Пермь,140RUB
656,10.12.2014;1;AI;Москва,140RUB
1364,08.05.2015;6;AI;Новосибирск,140RUB
1715,13.08.2010;6;AI;Екатеринбург,140RUB
1069,06.05.2011;5;AI;Екатеринбург,140RUB
467,25.01.2013;1;AI;Пермь,140RUB
1501,11.11.2010;9;AI;Новосибирск,140RUB
764,18.01.2013;0;AI;Пермь,140RUB
1168,15.06.2013;7;AI;Пермь,140RUB
1274,25.01.2010;1;AI;Новосибирск,140RUB
1124,12.09.2009;6;AI;Cевастополь,140RUB
1427,23.10.2010;9;AI;Москва,140RUB
380,08.04.2012;0;AI;Мурманск,140RUB
547,24.01.2014;1;AI;Москва,140RUB
1170,24.02.2014;2;AI;Санкт-Петербург,140RUB
534,30.08.2011;2;AI;Новосибирск,140RUB
1697,13.10.2011;0;AI;Архангельск,150RUB
1789,16.10.2012;5;AI;Cевастополь,150RUB
648,03.07.2010;0;AI;Архангельск,150RUB
776,05.04.2010;9;AI;Санкт-Петербург,150RUB
335,13.02.2010;9;AI;Архангельск,150RUB
94,30.12.2013;1;AI;Санкт-Петербург,150RUB
1534,27.09.2010;3;AI;Cевастополь,150RUB
1145,20.07.2009;8;AI;Новосибирск,150RUB
1621,18.08.2015;3;AI;Cевастополь,150RUB
1827,27.02.2012;3;AI;Новосибирск,150RUB
1931,03.09.2015;5;AI;Cевастополь,150RUB
1547,18.06.2012;9;AI;Москва,150RUB
1990,29.07.2014;1;AI;Cевастополь,150RUB
1412,23.03.2009;8;AI;Пермь,150RUB
549,27.10.2010;4;AI;Cевастополь,150RUB
268,30.07.2013;5;AI;Cевастополь,150RUB
720,07.10.2009;1;AI;Cевастополь,150RUB
1531,29.03.2015;1;AI;Архангельск,150RUB
509,10.10.2011;0;AI;Пермь,150RUB
1104,28.06.2011;3;AI;Пермь,150RUB
1261,20.11.2010;3;AI;Cевастополь,150RUB
982,24.01.2009;1;AI;Пермь,150RUB
1702,25.08.2012;0;AI;Cевастополь,150RUB
1713,10.07.2009;6;AI;Санкт-Петербург,150RUB
833,14.08.2010;9;AI;Cевастополь,150RUB
1740,05.01.2015;4;AI;Пермь,150RUB
988,24.12.2009;9;AI;Новосибирск,150RUB
1244,24.10.2012;4;AI;Cевастополь,150RUB
1517,24.07.2011;4;AI;Cевастополь,150RUB
1246,12.06.2015;1;AI;Мурманск,150RUB
32,01.11.2008;5;AI;Санкт-Петербург,150RUB
1846,29.04.2014;6;AI;Пермь,150RUB
730,24.07.2012;3;AI;Архангельск,150RUB
1709,16.03.2013;0;AI;Екатеринбург,150RUB
687,06.03.2013;3;AI;Пермь,150RUB
892,18.11.2012;1;AI;Новосибирск,150RUB
1892,05.05.2011;4;AI;Архангельск,150RUB
504,25.05.2010;0;AI;Архангельск,150RUB
1347,11.12.2013;0;AI;Cевастополь,150RUB
682,21.01.2010;5;AI;Cевастополь,150RUB
1745,17.09.2011;3;AI;Москва,150RUB
1652,10.04.2012;2;AI;Новосибирск,150RUB
1714,28.08.2015;3;AI;Москва,150RUB
1215,07.11.2013;9;AI;Москва,150RUB
899,11.02.2013;6;AI;Архангельск,150RUB
1721,09.02.2012;4;AI;Архангельск,150RUB
1972,17.09.2015;3;AI;Москва,150RUB
1746,12.05.2015;8;AI;Мурманск,150RUB
1251,22.09.2013;4;AI;Санкт-Петербург,150RUB
1349,25.11.2013;1;AI;Мурманск,150RUB
1163,02.05.2010;4;AI;Москва,150RUB
994,06.02.2010;2;AI;Cевастополь,150RUB
587,09.09.2010;2;AI;Cевастополь,150RUB
1213,29.03.2012;2;AI;Екатеринбург,150RUB
532,02.10.2008;4;AI;Екатеринбург,150RUB
723,26.11.2011;1;AI;Новосибирск,150RUB
1079,08.06.2013;4;AI;Новосибирск,150RUB
1014,24.02.2012;2;AI;Санкт-Петербург,150RUB
512,19.03.2015;8;AI;Cевастополь,150RUB
757,24.06.2009;7;AI;Новосибирск,150RUB
1342,06.04.2012;6;AI;Мурманск,150RUB
1786,20.12.2011;7;AI;Пермь,150RUB
1894,05.07.2009;3;AI;Екатеринбург,150RUB
374,26.06.2014;7;AI;Архангельск,150RUB
16,04.07.2010;0;AI;Екатеринбург,150RUB
422,16.02.2011;8;AI;Архангельск,150RUB
1476,12.10.2008;2;AI;Санкт-Петербург,150RUB
727,06.04.2013;0;AI;Мурманск,150RUB
607,24.11.2013;8;AI;Пермь,150RUB
1723,09.03.2009;8;AI;Пермь,150RUB
251,19.05.2015;0;AI;Санкт-Петербург,150RUB
1611,25.10.2011;9;AI;Москва,150RUB
848,26.01.2015;2;AI;Москва,150RUB
1129,17.09.2011;3;AI;Новосибирск,150RUB
438,03.07.2015;3;AI;Санкт-Петербург,150RUB
1073,14.02.2015;3;AI;Мурманск,150RUB
1997,10.08.2015;7;AI;Архангельск,150RUB
1649,30.01.2009;3;AI;Мурманск,150RUB
1332,29.06.2015;7;AI;Санкт-Петербург,150RUB
1533,04.11.2009;3;AI;Новосибирск,150RUB
739,02.01.2011;2;AI;Санкт-Петербург,150RUB
1516,05.09.2010;4;AI;Пермь,150RUB
1640,28.02.2011;4;AI;Мурманск,150RUB
796,28.03.2013;5;AI;Cевастополь,150RUB
1382,01.12.2010;5;AI;Cевастополь,150RUB
1081,27.09.2010;1;AI;Новосибирск,150RUB
572,27.11.2008;9;AI;Пермь,150RUB
1014,16.01.2013;7;AI;Санкт-Петербург,150RUB
620,31.05.2010;9;AI;Cевастополь,150RUB
1620,06.09.2011;7;AI;Екатеринбург,150RUB
902,24.10.2013;1;AI;Пермь,150RUB
933,19.06.2011;4;AI;Пермь,150RUB
1794,15.04.2015;1;AI;Архангельск,150RUB
1504,09.08.2009;4;AI;Мурманск,150RUB
979,30.11.2014;5;AI;Новосибирск,150RUB
1743,15.12.2012;1;AI;Санкт-Петербург,150RUB
1020,17.08.2013;1;AI;Москва,150RUB
866,08.04.2015;1;AI;Архангельск,150RUB
1095,09.06.2013;6;AI;Мурманск,150RUB
874,25.05.2010;3;AI;Москва,150RUB
799,30.05.2010;4;AI;Санкт-Петербург,150RUB
1106,26.11.2011;4;AI;Cевастополь,160RUB
1173,26.07.2014;5;AI;Архангельск,160RUB
1063,27.02.2012;1;AI;Мурманск,160RUB
1078,04.05.2011;7;AI;Новосибирск,160RUB
491,29.12.2008;2;AI;Пермь,160RUB
979,14.09.2013;9;AI;Архангельск,160RUB
1904,04.08.2011;9;AI;Москва,160RUB
1581,12.10.2009;9;AI;Новосибирск,160RUB
1895,22.10.2013;3;AI;Санкт-Петербург,160RUB
1208,26.10.2013;1;AI;Мурманск,160RUB
685,27.09.2009;1;AI;Пермь,160RUB
282,26.07.2012;7;AI;Cевастополь,160RUB
688,10.03.2011;4;AI;Санкт-Петербург,160RUB
1064,20.06.2015;6;AI;Cевастополь,160RUB
1585,04.06.2010;5;AI;Пермь,160RUB
192,17.10.2013;4;AI;Архангельск,160RUB
1366,13.04.2015;2;AI;Санкт-Петербург,160RUB
27,13.09.2010;8;AI;Архангельск,160RUB
324,07.11.2014;4;AI;Новосибирск,160RUB
1514,24.07.2009;4;AI;Екатеринбург,160RUB
216,19.07.2010;3;AI;Мурманск,160RUB
1833,26.06.2013;2;AI;Санкт-Петербург,160RUB
924,29.08.2013;4;AI;Пермь,160RUB
296,10.07.2011;6;AI;Мурманск,160RUB
600,28.07.2014;8;AI;Архангельск,160RUB
1217,28.04.2013;5;AI;Санкт-Петербург,160RUB
1364,23.07.2011;9;AI;Cевастополь,160RUB
43,03.01.2015;8;AI;Екатеринбург,160RUB
1350,18.12.2013;5;AI;Cевастополь,160RUB
1428,18.11.2008;7;AI;Пермь,160RUB
862,03.11.2014;2;AI;Санкт-Петербург,160RUB
344,01.10.2009;1;AI;Москва,160RUB
497,26.09.2015;4;AI;Пермь,160RUB
973,19.09.2015;6;AI;Новосибирск,160RUB
1373,31.05.2009;3;AI;Санкт-Петербург,160RUB
1952,25.10.2010;2;AI;Пермь,160RUB
483,06.12.2009;1;AI;Москва,160RUB
1195,18.01.2011;9;AI;Архангельск,160RUB
47,03.05.2009;6;AI;Екатеринбург,160RUB
1247,27.02.2011;1;AI;Мурманск,160RUB
1862,18.11.2010;4;AI;Санкт-Петербург,160RUB
285,17.09.2015;9;AI;Новосибирск,160RUB
1383,04.04.2013;4;AI;Архангельск,160RUB
1304,11.12.2013;2;AI;Новосибирск,160RUB
754,03.12.2009;5;AI;Мурманск,160RUB
821,09.10.2008;6;AI;Новосибирск,160RUB
658,15.01.2015;6;AI;Мурманск,160RUB
1249,17.01.2011;9;AI;Мурманск,160RUB
1838,25.01.2011;5;AI;Мурманск,160RUB
1464,29.10.2014;8;AI;Мурманск,160RUB
64,12.12.2014;1;AI;Москва,160RUB
1123,29.10.2013;1;AI;Архангельск,160RUB
1941,06.12.2010;3;AI;Cевастополь,160RUB
524,04.08.2015;6;AI;Cевастополь,160RUB
876,30.01.2012;5;AI;Cевастополь,160RUB
1301,17.09.2013;9;AI;Екатеринбург,160RUB
1373,03.02.2010;5;AI;Cевастополь,160RUB
1686,14.07.2012;7;AI;Москва,160RUB
993,15.04.2013;3;AI;Москва,160RUB
1985,04.06.2014;8;AI;Пермь,160RUB
1980,21.07.2012;9;AI;Архангельск,160RUB
870,06.02.2014;2;AI;Архангельск,160RUB
1445,08.02.2012;8;AI;Архангельск,160RUB
1769,07.08.2013;3;AI;Архангельск,160RUB
1961,12.07.2011;3;AI;Москва,160RUB
1562,12.08.2015;0;AI;Санкт-Петербург,160RUB
1679,09.08.2011;0;AI;Мурманск,160RUB
153,30.08.2014;1;AI;Архангельск,160RUB
202,10.06.2015;4;AI;Екатеринбург,160RUB
996,08.08.2011;4;AI;Новосибирск,160RUB
1920,11.01.2015;4;AI;Новосибирск,160RUB
913,28.02.2011;5;AI;Москва,160RUB
499,02.11.2013;1;AI;Архангельск,160RUB
1945,10.10.2008;1;AI;Cевастополь,160RUB
370,25.10.2010;3;AI;Санкт-Петербург,160RUB
1009,29.07.2009;3;AI;Новосибирск,160RUB
1519,03.02.2014;0;AI;Москва,160RUB
1119,21.09.2010;2;AI;Екатеринбург,160RUB
651,21.05.2015;3;AI;Cевастополь,160RUB
927,16.11.2014;0;AI;Архангельск,160RUB
750,10.12.2010;9;AI;Новосибирск,160RUB
515,11.02.2010;4;AI;Москва,160RUB
221,18.02.2013;7;AI;Cевастополь,160RUB
511,10.04.2013;6;AI;Москва,160RUB
651,14.02.2010;5;AI;Санкт-Петербург,160RUB
677,16.12.2012;7;AI;Екатеринбург,160RUB
448,06.02.2014;5;AI;Cевастополь,160RUB
1704,29.04.2011;6;AI;Архангельск,160RUB
1339,30.03.2011;4;AI;Новосибирск,160RUB
125,07.10.2011;8;AI;Новосибирск,160RUB
210,10.09.2009;2;AI;Cевастополь,160RUB
3,24.12.2013;9;AI;Новосибирск,160RUB
2,18.04.2015;3;AI;Новосибирск,160RUB
812,28.07.2013;6;AI;Москва,160RUB
475,31.07.2012;0;AI;Новосибирск,160RUB
636,26.10.2008;8;AI;Мурманск,160RUB
1882,10.09.2012;4;AI;Архангельск,160RUB
1411,01.01.2013;8;AI;Москва,160RUB
1065,20.08.2009;5;AI;Cевастополь,160RUB
1951,15.07.2011;2;AI;Москва,160RUB
652,03.11.2012;4;AI;Екатеринбург,160RUB
1395,04.09.2011;9;AI;Новосибирск,160RUB
859,26.02.2011;0;AI;Екатеринбург,160RUB
391,15.06.2010;3;AI;Екатеринбург,160RUB
1541,20.08.2011;7;AI;Пермь,160RUB
400,13.05.2012;3;AI;Архангельск,160RUB
503,16.07.2015;5;AI;Москва,160RUB
944,03.12.2010;8;AI;Архангельск,160RUB
1907,09.05.2015;8;AI;Новосибирск,160RUB
316,23.12.2008;2;AI;Санкт-Петербург,160RUB
1563,23.05.2015;0;AI;Новосибирск,160RUB
945,24.09.2011;5;AI;Пермь,170RUB
1518,12.09.2015;8;AI;Пермь,170RUB
1126,27.12.2014;5;AI;Москва,170RUB
1560,04.05.2014;0;AI;Новосибирск,170RUB
798,22.06.2015;7;AI;Санкт-Петербург,170RUB
823,16.10.2010;5;AI;Новосибирск,170RUB
1937,05.11.2010;6;AI;Архангельск,170RUB
347,04.03.2014;3;AI;Екатеринбург,170RUB
932,04.11.2013;4;AI;Архангельск,170RUB
1017,05.05.2015;5;AI;Санкт-Петербург,170RUB
1431,28.03.2012;7;AI;Екатеринбург,170RUB
1440,23.05.2010;3;AI;Архангельск,170RUB
672,25.04.2011;3;AI;Архангельск,170RUB
1148,24.07.2011;8;AI;Пермь,170RUB
907,27.10.2011;8;AI;Мурманск,170RUB
1892,05.05.2015;6;AI;Санкт-Петербург,170RUB
1887,13.04.2011;7;AI;Мурманск,170RUB
1422,20.12.2008;3;AI;Новосибирск,170RUB
1260,23.10.2014;9;AI;Новосибирск,170RUB
182,16.04.2009;3;AI;Новосибирск,170RUB
279,07.01.2012;6;AI;Москва,170RUB
78,30.04.2010;2;AI;Мурманск,170RUB
1523,21.05.2012;3;AI;Новосибирск,170RUB
678,06.03.2015;9;AI;Екатеринбург,170RUB
750,20.12.2008;8;AI;Санкт-Петербург,170RUB
1865,15.03.2011;3;AI;Мурманск,170RUB
1279,23.07.2015;7;AI;Санкт-Петербург,170RUB
382,29.03.2013;7;AI;Екатеринбург,170RUB
1890,25.03.2013;0;AI;Архангельск,170RUB
751,24.06.2009;9;AI;Санкт-Петербург,170RUB
159,02.01.2012;4;AI;Екатеринбург,170RUB
1985,04.06.2011;1;AI;Новосибирск,170RUB
246,30.08.2012;0;AI;Новосибирск,170RUB
1893,11.02.2012;2;AI;Мурманск,170RUB
486,16.06.2010;1;AI;Мурманск,170RUB
1628,02.01.2009;1;AI;Москва,170RUB
603,23.05.2015;6;AI;Мурманск,170RUB
860,29.07.2014;6;AI;Санкт-Петербург,170RUB
44,20.01.2014;4;AI;Санкт-Петербург,170RUB
1615,28.07.2015;8;AI;Москва,170RUB
917,27.05.2015;3;AI;Санкт-Петербург,170RUB
747,08.12.2013;5;AI;Екатеринбург,170RUB
1131,03.03.2014;1;AI;Архангельск,170RUB
279,05.12.2008;7;AI;Мурманск,170RUB
1452,29.05.2011;8;AI;Санкт-Петербург,170RUB
1567,30.09.2009;7;AI;Москва,170RUB
1334,20.11.2008;1;AI;Пермь,170RUB
391,08.01.2011;2;AI;Екатеринбург,170RUB
441,22.07.2010;1;AI;Мурманск,170RUB
815,01.07.2014;0;AI;Cевастополь,170RUB
456,02.07.2011;6;AI;Санкт-Петербург,170RUB
391,31.10.2012;8;AI;Москва,170RUB
1379,18.10.2010;6;AI;Санкт-Петербург,170RUB
1185,11.02.2011;1;AI;Мурманск,170RUB
1471,31.08.2014;3;AI;Мурманск,170RUB
1607,04.02.2011;7;AI;Екатеринбург,170RUB
359,23.06.2013;3;AI;Мурманск,170RUB
302,22.05.2013;5;AI;Санкт-Петербург,170RUB
210,23.08.2009;6;AI;Новосибирск,170RUB
114,23.05.2010;1;AI;Пермь,170RUB
290,09.01.2010;2;AI;Екатеринбург,170RUB
865,25.09.2013;3;AI;Москва,170RUB
147,04.12.2011;2;AI;Санкт-Петербург,170RUB
1198,31.05.2015;9;AI;Новосибирск,170RUB
996,23.03.2013;5;AI;Новосибирск,170RUB
1875,24.10.2014;0;AI;Мурманск,170RUB
1268,17.06.2015;8;AI;Екатеринбург,170RUB
493,06.08.2013;1;AI;Новосибирск,170RUB
1190,04.05.2010;8;AI;Санкт-Петербург,170RUB
107,10.02.2009;3;AI;Мурманск,170RUB
898,18.07.2009;7;AI;Пермь,170RUB
792,30.01.2009;5;AI;Мурманск,170RUB
169,07.11.2008;3;AI;Санкт-Петербург,170RUB
740,25.03.2009;4;AI;Cевастополь,170RUB
1281,15.12.2013;0;AI;Санкт-Петербург,170RUB
1988,05.11.2010;3;AI;Пермь,170RUB
1415,31.08.2011;0;AI;Екатеринбург,170RUB
1896,03.10.2011;0;AI;Архангельск,170RUB
522,22.08.2012;7;AI;Екатеринбург,170RUB
120,23.12.2010;4;AI;Пермь,170RUB
558,15.02.2011;8;AI;Пермь,170RUB
651,22.08.2015;5;AI;Санкт-Петербург,170RUB
498,21.04.2013;7;AI;Екатеринбург,170RUB
781,06.02.2013;2;AI;Екатеринбург,170RUB
1147,25.06.2014;9;AI;Пермь,170RUB
1451,11.11.2011;6;AI;Cевастополь,170RUB
621,23.07.2009;5;AI;Екатеринбург,170RUB
596,29.05.2011;2;AI;Архангельск,170RUB
1071,01.08.2009;0;AI;Санкт-Петербург,170RUB
1645,16.01.2015;5;AI;Архангельск,170RUB
1610,13.08.2009;2;AI;Пермь,170RUB
1517,20.02.2012;4;AI;Новосибирск,170RUB
1572,27.02.2012;5;AI;Мурманск,170RUB
1020,26.12.2012;7;AI;Мурманск,170RUB
653,25.11.2010;0;AI;Москва,170RUB
1907,21.03.2009;7;AI;Пермь,170RUB
1663,14.05.2012;6;AI;Новосибирск,170RUB
1006,08.06.2009;7;AI;Екатеринбург,170RUB
1864,12.10.2010;5;AI;Пермь,170RUB
56,11.11.2014;7;AI;Москва,170RUB
1879,14.09.2010;3;AI;Мурманск,170RUB
1119,19.12.2012;8;AI;Санкт-Петербург,170RUB
1083,19.08.2012;3;AI;Архангельск,170RUB
907,24.06.2013;3;AI;Санкт-Петербург,170RUB
849,14.10.2011;9;AI;Санкт-Петербург,170RUB
1517,05.08.2009;4;AI;Екатеринбург,170RUB
1876,05.06.2010;7;AI;Санкт-Петербург,180RUB
1144,26.04.2012;3;AI;Москва,180RUB
1517,31.03.2012;9;AI;Cевастополь,180RUB
1788,15.04.2014;4;AI;Мурманск,180RUB
433,30.07.2013;0;AI;Мурманск,180RUB
1403,18.03.2009;1;AI;Новосибирск,180RUB
116,31.10.2014;0;AI;Cевастополь,180RUB
1735,12.01.2014;2;AI;Санкт-Петербург,180RUB
397,14.03.2013;7;AI;Санкт-Петербург,180RUB
1084,24.09.2013;6;AI;Пермь,180RUB
1555,10.03.2011;5;AI;Мурманск,180RUB
257,21.01.2010;0;AI;Архангельск,180RUB
1339,13.04.2013;2;AI;Архангельск,180RUB
1746,17.11.2010;9;AI;Архангельск,180RUB
1244,02.11.2014;4;AI;Санкт-Петербург,180RUB
1784,13.07.2015;6;AI;Новосибирск,180RUB
1081,10.08.2014;6;AI;Санкт-Петербург,180RUB
1501,15.12.2009;4;AI;Екатеринбург,180RUB
1706,25.07.2013;2;AI;Мурманск,180RUB
1988,06.11.2009;5;AI;Санкт-Петербург,180RUB
397,05.08.2009;8;AI;Архангельск,180RUB
1459,15.12.2008;7;AI;Новосибирск,180RUB
497,02.07.2015;8;AI;Пермь,180RUB
1225,18.06.2014;7;AI;Новосибирск,180RUB
696,16.01.2015;1;AI;Новосибирск,180RUB
1856,11.03.2015;6;AI;Санкт-Петербург,180RUB
14,13.02.2013;8;AI;Cевастополь,180RUB
1976,08.09.2013;7;AI;Екатеринбург,180RUB
1973,03.07.2009;5;AI;Пермь,180RUB
297,08.02.2012;8;AI;Новосибирск,180RUB
1518,21.03.2009;2;AI;Cевастополь,180RUB
393,09.09.2010;1;AI;Новосибирск,180RUB
1146,27.03.2015;6;AI;Мурманск,180RUB
775,19.02.2011;2;AI;Cевастополь,180RUB
480,14.04.2012;7;AI;Екатеринбург,180RUB
661,28.01.2011;0;AI;Пермь,180RUB
1978,09.10.2009;0;AI;Екатеринбург,180RUB
686,22.02.2015;3;AI;Новосибирск,180RUB
1074,12.11.2012;8;AI;Пермь,180RUB
674,24.07.2012;6;AI;Пермь,180RUB
1062,11.12.2008;4;AI;Новосибирск,180RUB
1791,16.03.2010;2;AI;Новосибирск,180RUB
449,15.07.2014;7;AI;Cевастополь,180RUB
708,08.12.2011;2;AI;Мурманск,180RUB
348,06.11.2008;4;AI;Архангельск,180RUB
1426,09.04.2012;4;AI;Москва,180RUB
785,02.06.2015;8;AI;Cевастополь,180RUB
1311,18.04.2011;2;AI;Екатеринбург,180RUB
79,23.10.2013;7;AI;Мурманск,180RUB
1999,14.07.2014;5;AI;Санкт-Петербург,180RUB
309,30.06.2012;1;AI;Мурманск,180RUB
1695,20.10.2008;4;AI;Архангельск,180RUB
991,11.03.2015;1;AI;Новосибирск,180RUB
1612,03.09.2010;4;AI;Новосибирск,180RUB
1185,19.11.2010;1;AI;Архангельск,180RUB
1723,04.02.2009;8;AI;Мурманск,180RUB
847,31.03.2014;3;AI;Новосибирск,180RUB
1432,23.08.2015;0;AI;Архангельск,180RUB
1568,24.10.2011;7;AI;Пермь,180RUB
706,31.12.2014;6;AI;Мурманск,180RUB
1712,22.07.2011;5;AI;Мурманск,180RUB
1494,20.12.2014;0;AI;Cевастополь,180RUB
1865,23.12.2009;4;AI;Пермь,180RUB
631,23.08.2014;4;AI;Мурманск,180RUB
1936,13.09.2014;6;AI;Cевастополь,180RUB
939,01.09.2010;9;AI;Cевастополь,180RUB
944,29.07.2012;8;AI;Новосибирск,180RUB
1793,16.12.2008;2;AI;Cевастополь,180RUB
808,08.01.2011;7;AI;Пермь,180RUB
922,03.12.2012;9;AI;Мурманск,180RUB
130,12.04.2014;5;AI;Новосибирск,180RUB
717,06.12.2014;5;AI;Пермь,180RUB
178,15.03.2011;5;AI;Архангельск,180RUB
1780,23.01.2014;6;AI;Архангельск,180RUB
640,17.04.2013;9;AI;Новосибирск,180RUB
1590,28.04.2012;7;AI;Архангельск,180RUB
326,22.02.2014;0;AI;Санкт-Петербург,180RUB
183,15.04.2009;7;AI;Екатеринбург,180RUB
778,23.09.2011;8;AI;Санкт-Петербург,180RUB
470,29.05.2011;1;AI;Архангельск,180RUB
1120,18.01.2010;5;AI;Пермь,180RUB
1579,06.01.2010;7;AI;Мурманск,180RUB
306,06.12.2009;0;AI;Пермь,180RUB
1176,14.12.2010;1;AI;Мурманск,180RUB
1836,19.04.2011;5;AI;Мурманск,180RUB
1084,15.07.2012;0;AI;Мурманск,180RUB
308,25.10.2014;7;AI;Пермь,180RUB
1201,24.11.2011;8;AI;Мурманск,180RUB
638,21.11.2009;8;AI;Архангельск,180RUB
1168,10.09.2009;9;AI;Cевастополь,180RUB
1121,06.06.2012;0;AI;Новосибирск,180RUB
1776,01.02.2013;8;AI;Мурманск,180RUB
716,08.02.2011;6;AI;Пермь,180RUB
1110,05.12.2013;8;AI;Москва,180RUB
1990,20.03.2012;5;AI;Санкт-Петербург,180RUB
1392,04.09.2010;9;AI;Пермь,180RUB
368,13.07.2011;8;AI;Санкт-Петербург,180RUB
870,12.11.2011;7;AI;Архангельск,180RUB
75,16.03.2009;8;AI;Москва,180RUB
1369,20.06.2015;8;AI;Екатеринбург,180RUB
1053,25.02.2010;1;AI;Санкт-Петербург,180RUB
1740,05.01.2009;3;AI;Cевастополь,180RUB
589,04.07.2013;0;AI;Санкт-Петербург,180RUB
1453,15.11.2009;4;AI;Екатеринбург,180RUB
95,01.04.2015;9;AI;Новосибирск,180RUB
864,04.04.2013;8;AI;Архангельск,180RUB
1726,24.04.2010;8;AI;Санкт-Петербург,180RUB
1532,01.03.2011;7;AI;Новосибирск,180RUB
1522,29.03.2015;5;AI;Пермь,180RUB
2,07.01.2013;5;AI;Cевастополь,180RUB
646,12.01.2010;5;AI;Москва,180RUB
58,23.12.2013;7;AI;Мурманск,180RUB
1472,11.08.2009;4;AI;Екатеринбург,180RUB
848,15.03.2013;6;AI;Архангельск,180RUB
1485,22.08.2013;7;AI;Архангельск,180RUB
1468,21.05.2012;7;AI;Мурманск,180RUB
1334,02.07.2012;0;AI;Cевастополь,180RUB
793,16.11.2010;9;AI;Архангельск,180RUB
1130,03.06.2015;4;AI;Мурманск,180RUB
1576,27.04.2015;4;AI;Cевастополь,180RUB
1119,01.02.2009;9;AI;Москва,180RUB
366,19.04.2011;7;AI;Екатеринбург,180RUB
1239,05.04.2009;5;AI;Москва,180RUB
936,20.01.2009;1;AI;Пермь,180RUB
219,09.11.2011;1;AI;Архангельск,180RUB
233,06.05.2014;4;AI;Новосибирск,190RUB
1937,29.08.2011;6;AI;Москва,190RUB
1379,15.06.2013;3;AI;Москва,190RUB
488,29.11.2012;9;AI;Новосибирск,190RUB
1673,11.01.2014;0;AI;Новосибирск,190RUB
224,02.07.2010;7;AI;Пермь,190RUB
1632,16.08.2010;3;AI;Cевастополь,190RUB
1069,01.09.2014;7;AI;Екатеринбург,190RUB
1877,09.10.2013;2;AI;Cевастополь,190RUB
1355,02.11.2009;1;AI;Пермь,190RUB
1128,04.11.2010;9;AI;Санкт-Петербург,190RUB
1916,23.09.2013;2;AI;Архангельск,190RUB
522,29.11.2009;7;AI;Новосибирск,190RUB
185,13.05.2015;7;AI;Архангельск,190RUB
958,23.09.2010;9;AI;Пермь,190RUB
507,19.07.2013;5;AI;Екатеринбург,190RUB
286,20.12.2013;0;AI;Мурманск,190RUB
1887,20.10.2014;7;AI;Москва,190RUB
469,05.09.2009;5;AI;Пермь,190RUB
366,18.11.2012;1;AI;Новосибирск,190RUB
651,13.01.2014;2;AI;Санкт-Петербург,190RUB
575,07.09.2012;9;AI;Cевастополь,190RUB
1502,12.09.2015;0;AI;Новосибирск,190RUB
834,14.07.2014;8;AI;Мурманск,190RUB
1528,16.12.2009;7;AI;Архангельск,190RUB
520,12.04.2012;0;AI;Пермь,190RUB
274,03.03.2012;4;AI;Cевастополь,190RUB
1009,28.11.2012;6;AI;Мурманск,190RUB
783,04.05.2013;8;AI;Архангельск,190RUB
1269,17.11.2008;3;AI;Cевастополь,190RUB
1221,22.07.2013;8;AI;Пермь,190RUB
302,28.10.2014;5;AI;Новосибирск,190RUB
1543,08.04.2012;7;AI;Москва,190RUB
575,29.09.2015;3;AI;Новосибирск,190RUB
370,30.01.2010;9;AI;Санкт-Петербург,190RUB
